EESchema Schematic File Version 4
EELAYER 30 0
EELAYER END
$Descr A4 11693 8268
encoding utf-8
Sheet 1 1
Title ""
Date ""
Rev ""
Comp ""
Comment1 ""
Comment2 ""
Comment3 ""
Comment4 ""
$EndDescr
$Comp
L Connector:USB_A J2
U 1 1 617BA8E6
P 2550 1750
F 0 "J2" H 2607 2217 50  0000 C CNN
F 1 "USB_A" H 2607 2126 50  0000 C CNN
F 2 "Connector_USB:USB_A_Wuerth_614004134726_Horizontal" H 2700 1700 50  0001 C CNN
F 3 " ~" H 2700 1700 50  0001 C CNN
	1    2550 1750
	1    0    0    -1  
$EndComp
Wire Wire Line
	2550 2250 2550 2150
Wire Wire Line
	2950 1850 2850 1850
Wire Wire Line
	2950 1750 2850 1750
NoConn ~ 2950 1750
NoConn ~ 2950 1850
$Comp
L power:GND #PWR0101
U 1 1 617BB2A7
P 2550 2250
F 0 "#PWR0101" H 2550 2000 50  0001 C CNN
F 1 "GND" H 2555 2077 50  0000 C CNN
F 2 "" H 2550 2250 50  0001 C CNN
F 3 "" H 2550 2250 50  0001 C CNN
	1    2550 2250
	1    0    0    -1  
$EndComp
$Comp
L Connector_Generic:Conn_02x10_Top_Bottom J3
U 1 1 617BBA79
P 2050 6500
F 0 "J3" H 2100 7117 50  0000 C CNN
F 1 "Conn_02x10_Top_Bottom" H 2100 7026 50  0000 C CNN
F 2 "Connector_Molex:Molex_Mini-Fit_Jr_5566-20A_2x10_P4.20mm_Vertical" H 2050 6500 50  0001 C CNN
F 3 "~" H 2050 6500 50  0001 C CNN
	1    2050 6500
	1    0    0    -1  
$EndComp
Wire Wire Line
	1850 6300 1750 6300
Wire Wire Line
	1750 6300 1750 6500
Wire Wire Line
	1750 6500 1850 6500
Wire Wire Line
	1850 6700 1750 6700
Wire Wire Line
	1750 6700 1750 6500
Connection ~ 1750 6500
Wire Wire Line
	2350 6300 2450 6300
Wire Wire Line
	2450 6300 2450 6500
Wire Wire Line
	2450 6500 2350 6500
Wire Wire Line
	2350 6700 2450 6700
Wire Wire Line
	2450 6700 2450 6600
Connection ~ 2450 6500
Wire Wire Line
	2350 6600 2450 6600
Connection ~ 2450 6600
Wire Wire Line
	2450 6600 2450 6500
$Comp
L power:GND #PWR0102
U 1 1 617BFA2B
P 1750 7100
F 0 "#PWR0102" H 1750 6850 50  0001 C CNN
F 1 "GND" H 1755 6927 50  0000 C CNN
F 2 "" H 1750 7100 50  0001 C CNN
F 3 "" H 1750 7100 50  0001 C CNN
	1    1750 7100
	1    0    0    -1  
$EndComp
$Comp
L power:GND #PWR0103
U 1 1 617BFFE0
P 2450 7100
F 0 "#PWR0103" H 2450 6850 50  0001 C CNN
F 1 "GND" H 2455 6927 50  0000 C CNN
F 2 "" H 2450 7100 50  0001 C CNN
F 3 "" H 2450 7100 50  0001 C CNN
	1    2450 7100
	1    0    0    -1  
$EndComp
Wire Wire Line
	2450 7100 2450 6700
Connection ~ 2450 6700
Wire Wire Line
	1750 6700 1750 7100
Connection ~ 1750 6700
Wire Wire Line
	1850 6200 1750 6200
Wire Wire Line
	1750 6200 1750 6100
Wire Wire Line
	1850 6100 1750 6100
Connection ~ 1750 6100
Wire Wire Line
	1750 6100 1750 5900
Wire Wire Line
	2350 6100 2450 6100
Wire Wire Line
	2450 6100 2450 5900
Wire Wire Line
	2350 6200 2550 6200
Wire Wire Line
	2550 6200 2550 6000
Wire Wire Line
	2350 6400 2550 6400
Wire Wire Line
	2350 6900 2550 6900
Wire Wire Line
	2650 6900 2650 6800
Wire Wire Line
	2350 7000 2550 7000
Wire Wire Line
	2550 7000 2550 6900
Connection ~ 2550 6900
Wire Wire Line
	2550 6900 2650 6900
Wire Wire Line
	2350 6800 2550 6800
Wire Wire Line
	2550 6800 2550 6700
Wire Wire Line
	1850 6400 1650 6400
Wire Wire Line
	1650 6400 1650 6300
Wire Wire Line
	1850 6600 1650 6600
Wire Wire Line
	1650 6600 1650 6400
Connection ~ 1650 6400
Wire Wire Line
	1850 6800 1650 6800
$Comp
L power:+5V #PWR0104
U 1 1 617DF54E
P 1650 6300
F 0 "#PWR0104" H 1650 6150 50  0001 C CNN
F 1 "+5V" H 1665 6473 50  0000 C CNN
F 2 "" H 1650 6300 50  0001 C CNN
F 3 "" H 1650 6300 50  0001 C CNN
	1    1650 6300
	1    0    0    -1  
$EndComp
$Comp
L power:+5V #PWR0105
U 1 1 617DFB64
P 2650 6800
F 0 "#PWR0105" H 2650 6650 50  0001 C CNN
F 1 "+5V" H 2665 6973 50  0000 C CNN
F 2 "" H 2650 6800 50  0001 C CNN
F 3 "" H 2650 6800 50  0001 C CNN
	1    2650 6800
	1    0    0    -1  
$EndComp
$Comp
L power:-5V #PWR0106
U 1 1 617E09D1
P 2550 6700
F 0 "#PWR0106" H 2550 6800 50  0001 C CNN
F 1 "-5V" H 2565 6873 50  0000 C CNN
F 2 "" H 2550 6700 50  0001 C CNN
F 3 "" H 2550 6700 50  0001 C CNN
	1    2550 6700
	1    0    0    -1  
$EndComp
Text Label 2550 6400 0    50   ~ 0
PS_ON
$Comp
L power:-12V #PWR0107
U 1 1 617E11B8
P 2550 6000
F 0 "#PWR0107" H 2550 6100 50  0001 C CNN
F 1 "-12V" H 2565 6173 50  0000 C CNN
F 2 "" H 2550 6000 50  0001 C CNN
F 3 "" H 2550 6000 50  0001 C CNN
	1    2550 6000
	1    0    0    -1  
$EndComp
$Comp
L power:+3.3V #PWR0108
U 1 1 617E1717
P 2450 5900
F 0 "#PWR0108" H 2450 5750 50  0001 C CNN
F 1 "+3.3V" H 2465 6073 50  0000 C CNN
F 2 "" H 2450 5900 50  0001 C CNN
F 3 "" H 2450 5900 50  0001 C CNN
	1    2450 5900
	1    0    0    -1  
$EndComp
$Comp
L power:+3.3V #PWR0109
U 1 1 617E1903
P 1750 5900
F 0 "#PWR0109" H 1750 5750 50  0001 C CNN
F 1 "+3.3V" H 1765 6073 50  0000 C CNN
F 2 "" H 1750 5900 50  0001 C CNN
F 3 "" H 1750 5900 50  0001 C CNN
	1    1750 5900
	1    0    0    -1  
$EndComp
Text Label 1650 6800 2    50   ~ 0
PWR_OK
Wire Wire Line
	1850 7000 1150 7000
Wire Wire Line
	1150 7000 1150 6900
$Comp
L power:+12V #PWR0110
U 1 1 617E3DC2
P 1150 6900
F 0 "#PWR0110" H 1150 6750 50  0001 C CNN
F 1 "+12V" H 1165 7073 50  0000 C CNN
F 2 "" H 1150 6900 50  0001 C CNN
F 3 "" H 1150 6900 50  0001 C CNN
	1    1150 6900
	1    0    0    -1  
$EndComp
Wire Wire Line
	1300 6700 1300 6900
Wire Wire Line
	1300 6900 1850 6900
Wire Wire Line
	2850 1550 2950 1550
$Comp
L power:+5V #PWR0112
U 1 1 617BFD9D
P 2950 1450
F 0 "#PWR0112" H 2950 1300 50  0001 C CNN
F 1 "+5V" H 2965 1623 50  0000 C CNN
F 2 "" H 2950 1450 50  0001 C CNN
F 3 "" H 2950 1450 50  0001 C CNN
	1    2950 1450
	1    0    0    -1  
$EndComp
Wire Wire Line
	2950 1450 2950 1550
$Comp
L Switch:SW_SPST SW1
U 1 1 617C1396
P 8550 1000
F 0 "SW1" V 8504 1098 50  0000 L CNN
F 1 "SW_SPST" V 8595 1098 50  0000 L CNN
F 2 "Button_Switch_SMD:SW_SPST_B3S-1000" H 8550 1000 50  0001 C CNN
F 3 "~" H 8550 1000 50  0001 C CNN
	1    8550 1000
	0    1    1    0   
$EndComp
$Comp
L Connector_Generic:Conn_01x02 J4
U 1 1 617C2A74
P 9200 800
F 0 "J4" H 9280 792 50  0000 L CNN
F 1 "Conn_01x02" H 9280 701 50  0000 L CNN
F 2 "Connector_PinSocket_2.54mm:PinSocket_1x02_P2.54mm_Vertical" H 9200 800 50  0001 C CNN
F 3 "~" H 9200 800 50  0001 C CNN
	1    9200 800 
	1    0    0    -1  
$EndComp
Wire Wire Line
	9000 900  8900 900 
Wire Wire Line
	8900 900  8900 1200
Wire Wire Line
	8900 1200 8550 1200
Wire Wire Line
	9000 800  8550 800 
Connection ~ 8550 800 
Wire Wire Line
	8550 1200 8450 1200
Wire Wire Line
	8450 1200 8450 1300
Connection ~ 8550 1200
Wire Wire Line
	8350 800  8550 800 
Text Label 8350 800  2    50   ~ 0
SW_ON-OFF
Wire Wire Line
	2650 850  2900 850 
Wire Wire Line
	2900 750  2650 750 
Text Label 2900 750  0    50   ~ 0
RPi2_Signal
$Comp
L Connector:USB_A J6
U 1 1 617D8799
P 1150 1750
F 0 "J6" H 1207 2217 50  0000 C CNN
F 1 "USB_A" H 1207 2126 50  0000 C CNN
F 2 "Connector_USB:USB_A_Wuerth_614004134726_Horizontal" H 1300 1700 50  0001 C CNN
F 3 " ~" H 1300 1700 50  0001 C CNN
	1    1150 1750
	1    0    0    -1  
$EndComp
Wire Wire Line
	1150 2250 1150 2150
Wire Wire Line
	1550 1850 1450 1850
Wire Wire Line
	1550 1750 1450 1750
NoConn ~ 1550 1750
NoConn ~ 1550 1850
$Comp
L power:GND #PWR0114
U 1 1 617D87D6
P 1150 2250
F 0 "#PWR0114" H 1150 2000 50  0001 C CNN
F 1 "GND" H 1155 2077 50  0000 C CNN
F 2 "" H 1150 2250 50  0001 C CNN
F 3 "" H 1150 2250 50  0001 C CNN
	1    1150 2250
	1    0    0    -1  
$EndComp
Wire Wire Line
	1450 1550 1550 1550
$Comp
L power:+5V #PWR0115
U 1 1 617D87E1
P 1550 1450
F 0 "#PWR0115" H 1550 1300 50  0001 C CNN
F 1 "+5V" H 1565 1623 50  0000 C CNN
F 2 "" H 1550 1450 50  0001 C CNN
F 3 "" H 1550 1450 50  0001 C CNN
	1    1550 1450
	1    0    0    -1  
$EndComp
Wire Wire Line
	1550 1450 1550 1550
Wire Wire Line
	1250 850  1500 850 
Wire Wire Line
	1500 750  1250 750 
Text Label 1500 850  0    50   ~ 0
RPi1_Act
Text Label 1500 750  0    50   ~ 0
RPi1_Signal
$Comp
L Connector:USB_A J10
U 1 1 617DB656
P 2550 3650
F 0 "J10" H 2607 4117 50  0000 C CNN
F 1 "USB_A" H 2607 4026 50  0000 C CNN
F 2 "Connector_USB:USB_A_Wuerth_614004134726_Horizontal" H 2700 3600 50  0001 C CNN
F 3 " ~" H 2700 3600 50  0001 C CNN
	1    2550 3650
	1    0    0    -1  
$EndComp
Wire Wire Line
	2550 4150 2550 4050
Wire Wire Line
	2950 3750 2850 3750
Wire Wire Line
	2950 3650 2850 3650
NoConn ~ 2950 3650
NoConn ~ 2950 3750
$Comp
L power:GND #PWR0116
U 1 1 617DB667
P 2550 4150
F 0 "#PWR0116" H 2550 3900 50  0001 C CNN
F 1 "GND" H 2555 3977 50  0000 C CNN
F 2 "" H 2550 4150 50  0001 C CNN
F 3 "" H 2550 4150 50  0001 C CNN
	1    2550 4150
	1    0    0    -1  
$EndComp
Wire Wire Line
	2850 3450 2950 3450
$Comp
L power:+5V #PWR0117
U 1 1 617DB672
P 2950 3350
F 0 "#PWR0117" H 2950 3200 50  0001 C CNN
F 1 "+5V" H 2965 3523 50  0000 C CNN
F 2 "" H 2950 3350 50  0001 C CNN
F 3 "" H 2950 3350 50  0001 C CNN
	1    2950 3350
	1    0    0    -1  
$EndComp
Wire Wire Line
	2950 3350 2950 3450
Wire Wire Line
	2650 2750 2900 2750
Wire Wire Line
	2900 2650 2650 2650
Text Label 2900 2750 0    50   ~ 0
RPi4_Act
Text Label 2900 2650 0    50   ~ 0
RPi4_Signal
$Comp
L Connector:USB_A J8
U 1 1 617DB68B
P 1150 3650
F 0 "J8" H 1207 4117 50  0000 C CNN
F 1 "USB_A" H 1207 4026 50  0000 C CNN
F 2 "Connector_USB:USB_A_Wuerth_614004134726_Horizontal" H 1300 3600 50  0001 C CNN
F 3 " ~" H 1300 3600 50  0001 C CNN
	1    1150 3650
	1    0    0    -1  
$EndComp
Wire Wire Line
	1150 4150 1150 4050
Wire Wire Line
	1550 3750 1450 3750
Wire Wire Line
	1550 3650 1450 3650
NoConn ~ 1550 3650
NoConn ~ 1550 3750
$Comp
L power:GND #PWR0118
U 1 1 617DB69C
P 1150 4150
F 0 "#PWR0118" H 1150 3900 50  0001 C CNN
F 1 "GND" H 1155 3977 50  0000 C CNN
F 2 "" H 1150 4150 50  0001 C CNN
F 3 "" H 1150 4150 50  0001 C CNN
	1    1150 4150
	1    0    0    -1  
$EndComp
Wire Wire Line
	1450 3450 1550 3450
$Comp
L power:+5V #PWR0119
U 1 1 617DB6A7
P 1550 3350
F 0 "#PWR0119" H 1550 3200 50  0001 C CNN
F 1 "+5V" H 1565 3523 50  0000 C CNN
F 2 "" H 1550 3350 50  0001 C CNN
F 3 "" H 1550 3350 50  0001 C CNN
	1    1550 3350
	1    0    0    -1  
$EndComp
Wire Wire Line
	1550 3350 1550 3450
Text Label 1500 2750 0    50   ~ 0
RPi3_Act
Text Label 1500 2650 0    50   ~ 0
RPi3_Signal
Text Label 5450 3550 0    50   ~ 0
RPi1_Signal
Text Label 5450 4000 0    50   ~ 0
RPi4_Signal
Text Label 5450 3700 0    50   ~ 0
RPi2_Signal
Text Label 5450 3850 0    50   ~ 0
RPi3_Signal
Text Label 4950 3850 2    50   ~ 0
RPi_Signal
Wire Wire Line
	5050 3550 5050 3700
Connection ~ 5050 4000
Wire Wire Line
	5050 4000 5050 4150
Connection ~ 5050 3850
Wire Wire Line
	5050 3850 5050 4000
Wire Wire Line
	5050 3850 4950 3850
Connection ~ 5050 3700
Wire Wire Line
	5050 3700 5050 3850
Text Label 4600 6550 2    50   ~ 0
RPi4_Act
Text Label 4600 6450 2    50   ~ 0
RPi3_Act
Text Label 4600 5850 2    50   ~ 0
RPi2_Act
Text Label 4600 5750 2    50   ~ 0
RPi1_Act
$Comp
L power:GND #PWR0125
U 1 1 618D6C03
P 5850 7050
F 0 "#PWR0125" H 5850 6800 50  0001 C CNN
F 1 "GND" H 5855 6877 50  0000 C CNN
F 2 "" H 5850 7050 50  0001 C CNN
F 3 "" H 5850 7050 50  0001 C CNN
	1    5850 7050
	1    0    0    -1  
$EndComp
Text Label 4450 1100 2    50   ~ 0
RPiN_Signal
Wire Wire Line
	4550 1100 4450 1100
Wire Wire Line
	4450 1200 4550 1200
Text Label 5200 5850 0    50   ~ 0
RPi_Act
Text Label 4600 6650 2    50   ~ 0
RPiN_Act
Wire Wire Line
	4450 1000 4550 1000
Wire Wire Line
	4450 900  4450 1000
$Comp
L Connector_Generic:Conn_01x01 J13
U 1 1 61985B2B
P 4750 1600
F 0 "J13" H 4830 1642 50  0000 L CNN
F 1 "Conn_01x01" H 4830 1551 50  0000 L CNN
F 2 "Connector_Pin:Pin_D1.4mm_L8.5mm_W2.8mm_FlatFork" H 4750 1600 50  0001 C CNN
F 3 "~" H 4750 1600 50  0001 C CNN
	1    4750 1600
	1    0    0    -1  
$EndComp
$Comp
L Connector_Generic:Conn_01x01 J14
U 1 1 619870EC
P 4750 1800
F 0 "J14" H 4830 1842 50  0000 L CNN
F 1 "Conn_01x01" H 4830 1751 50  0000 L CNN
F 2 "Connector_Pin:Pin_D1.4mm_L8.5mm_W2.8mm_FlatFork" H 4750 1800 50  0001 C CNN
F 3 "~" H 4750 1800 50  0001 C CNN
	1    4750 1800
	1    0    0    -1  
$EndComp
$Comp
L power:+5V #PWR0127
U 1 1 6198AEA1
P 4450 1500
F 0 "#PWR0127" H 4450 1350 50  0001 C CNN
F 1 "+5V" H 4465 1673 50  0000 C CNN
F 2 "" H 4450 1500 50  0001 C CNN
F 3 "" H 4450 1500 50  0001 C CNN
	1    4450 1500
	1    0    0    -1  
$EndComp
$Comp
L power:GND #PWR0128
U 1 1 6198ECD1
P 1350 1050
F 0 "#PWR0128" H 1350 800 50  0001 C CNN
F 1 "GND" H 1355 877 50  0000 C CNN
F 2 "" H 1350 1050 50  0001 C CNN
F 3 "" H 1350 1050 50  0001 C CNN
	1    1350 1050
	1    0    0    -1  
$EndComp
Wire Wire Line
	4550 1600 4450 1600
Wire Wire Line
	4450 1600 4450 1500
Wire Wire Line
	1350 950  1250 950 
Wire Wire Line
	1350 950  1350 1050
Wire Wire Line
	6150 1100 6250 1100
Wire Wire Line
	6250 1200 6150 1200
Wire Wire Line
	6250 1000 6150 1000
Wire Wire Line
	6250 900  6250 1000
$Comp
L Connector_Generic:Conn_01x03 J15
U 1 1 619A5CE6
P 5950 1100
F 0 "J15" H 6030 1142 50  0000 L CNN
F 1 "Conn_01x03" H 6030 1051 50  0000 L CNN
F 2 "Connector_PinHeader_2.54mm:PinHeader_1x03_P2.54mm_Horizontal" H 5950 1100 50  0001 C CNN
F 3 "~" H 5950 1100 50  0001 C CNN
	1    5950 1100
	-1   0    0    1   
$EndComp
$Comp
L Connector_Generic:Conn_01x01 J16
U 1 1 619A5CEC
P 5950 1600
F 0 "J16" H 6030 1642 50  0000 L CNN
F 1 "Conn_01x01" H 6030 1551 50  0000 L CNN
F 2 "Connector_Pin:Pin_D1.4mm_L8.5mm_W2.8mm_FlatFork" H 5950 1600 50  0001 C CNN
F 3 "~" H 5950 1600 50  0001 C CNN
	1    5950 1600
	-1   0    0    -1  
$EndComp
$Comp
L Connector_Generic:Conn_01x01 J17
U 1 1 619A5CF2
P 5950 1800
F 0 "J17" H 6030 1842 50  0000 L CNN
F 1 "Conn_01x01" H 6030 1751 50  0000 L CNN
F 2 "Connector_Pin:Pin_D1.4mm_L8.5mm_W2.8mm_FlatFork" H 5950 1800 50  0001 C CNN
F 3 "~" H 5950 1800 50  0001 C CNN
	1    5950 1800
	-1   0    0    -1  
$EndComp
$Comp
L power:+5V #PWR0130
U 1 1 619A5CF8
P 6250 1500
F 0 "#PWR0130" H 6250 1350 50  0001 C CNN
F 1 "+5V" H 6265 1673 50  0000 C CNN
F 2 "" H 6250 1500 50  0001 C CNN
F 3 "" H 6250 1500 50  0001 C CNN
	1    6250 1500
	-1   0    0    -1  
$EndComp
$Comp
L power:GND #PWR0131
U 1 1 619A5CFE
P 6250 1900
F 0 "#PWR0131" H 6250 1650 50  0001 C CNN
F 1 "GND" H 6255 1727 50  0000 C CNN
F 2 "" H 6250 1900 50  0001 C CNN
F 3 "" H 6250 1900 50  0001 C CNN
	1    6250 1900
	-1   0    0    -1  
$EndComp
Wire Wire Line
	6150 1600 6250 1600
Wire Wire Line
	6250 1600 6250 1500
Wire Wire Line
	6150 1800 6250 1800
Wire Wire Line
	6250 1800 6250 1900
Text Label 1300 6700 1    50   ~ 0
5V_SB
Text Label 6250 1200 0    50   ~ 0
RPi_Act
Text Label 4450 1200 2    50   ~ 0
RPiN_Act
Text Label 6250 1100 0    50   ~ 0
RPi_Signal
Wire Wire Line
	2450 4050 2550 4050
Connection ~ 2550 4050
Wire Wire Line
	1150 4050 1050 4050
Connection ~ 1150 4050
Wire Wire Line
	1050 2150 1150 2150
Connection ~ 1150 2150
Wire Wire Line
	2450 2150 2550 2150
Connection ~ 2550 2150
Text Label 2900 850  0    50   ~ 0
RPi2_Act
$Comp
L Connector_Generic:Conn_01x03 J1
U 1 1 6184C8F5
P 1050 850
F 0 "J1" H 1130 892 50  0000 L CNN
F 1 "Conn_01x03" H 1130 801 50  0000 L CNN
F 2 "Connector_PinHeader_2.54mm:PinHeader_1x03_P2.54mm_Vertical" H 1050 850 50  0001 C CNN
F 3 "~" H 1050 850 50  0001 C CNN
	1    1050 850 
	-1   0    0    1   
$EndComp
$Comp
L Connector_Generic:Conn_01x03 J7
U 1 1 6188961A
P 2450 850
F 0 "J7" H 2530 892 50  0000 L CNN
F 1 "Conn_01x03" H 2530 801 50  0000 L CNN
F 2 "Connector_PinHeader_2.54mm:PinHeader_1x03_P2.54mm_Vertical" H 2450 850 50  0001 C CNN
F 3 "~" H 2450 850 50  0001 C CNN
	1    2450 850 
	-1   0    0    1   
$EndComp
$Comp
L power:GND #PWR0111
U 1 1 6188DA36
P 2750 1050
F 0 "#PWR0111" H 2750 800 50  0001 C CNN
F 1 "GND" H 2755 877 50  0000 C CNN
F 2 "" H 2750 1050 50  0001 C CNN
F 3 "" H 2750 1050 50  0001 C CNN
	1    2750 1050
	1    0    0    -1  
$EndComp
Wire Wire Line
	2750 950  2650 950 
Wire Wire Line
	2750 950  2750 1050
Wire Wire Line
	1500 2650 1250 2650
Wire Wire Line
	1250 2750 1500 2750
$Comp
L power:GND #PWR0113
U 1 1 618AFAAF
P 1350 2950
F 0 "#PWR0113" H 1350 2700 50  0001 C CNN
F 1 "GND" H 1355 2777 50  0000 C CNN
F 2 "" H 1350 2950 50  0001 C CNN
F 3 "" H 1350 2950 50  0001 C CNN
	1    1350 2950
	1    0    0    -1  
$EndComp
Wire Wire Line
	1350 2850 1250 2850
Wire Wire Line
	1350 2850 1350 2950
$Comp
L Connector_Generic:Conn_01x03 J5
U 1 1 618AFAC3
P 1050 2750
F 0 "J5" H 1130 2792 50  0000 L CNN
F 1 "Conn_01x03" H 1130 2701 50  0000 L CNN
F 2 "Connector_PinHeader_2.54mm:PinHeader_1x03_P2.54mm_Vertical" H 1050 2750 50  0001 C CNN
F 3 "~" H 1050 2750 50  0001 C CNN
	1    1050 2750
	-1   0    0    1   
$EndComp
$Comp
L power:GND #PWR0120
U 1 1 618B4737
P 2750 2950
F 0 "#PWR0120" H 2750 2700 50  0001 C CNN
F 1 "GND" H 2755 2777 50  0000 C CNN
F 2 "" H 2750 2950 50  0001 C CNN
F 3 "" H 2750 2950 50  0001 C CNN
	1    2750 2950
	1    0    0    -1  
$EndComp
Wire Wire Line
	2750 2850 2650 2850
Wire Wire Line
	2750 2850 2750 2950
$Comp
L Connector_Generic:Conn_01x03 J9
U 1 1 618B4743
P 2450 2750
F 0 "J9" H 2530 2792 50  0000 L CNN
F 1 "Conn_01x03" H 2530 2701 50  0000 L CNN
F 2 "Connector_PinHeader_2.54mm:PinHeader_1x03_P2.54mm_Vertical" H 2450 2750 50  0001 C CNN
F 3 "~" H 2450 2750 50  0001 C CNN
	1    2450 2750
	-1   0    0    1   
$EndComp
Wire Notes Line
	500  4500 3450 4500
Wire Notes Line
	3450 4500 3450 500 
Text Notes 1450 4450 0    50   ~ 0
    USB Connectors\nRPi Activity and Signal
Wire Notes Line
	1400 4500 1400 4250
Wire Notes Line
	1400 4250 2400 4250
Wire Notes Line
	2400 4250 2400 4500
Wire Notes Line
	3450 7800 3450 5200
Wire Notes Line
	3450 5200 500  5200
Text Notes 1500 5500 0    50   ~ 0
 ATX Power Supply\nMolex MiniFit 20 pin\n    39-29-9202
Wire Notes Line
	1400 5200 1400 5550
Wire Notes Line
	1400 5550 2400 5550
Wire Notes Line
	2400 5550 2400 5200
$Comp
L power:VCC #PWR0122
U 1 1 619240D4
P 9600 5250
F 0 "#PWR0122" H 9600 5100 50  0001 C CNN
F 1 "VCC" H 9615 5423 50  0000 C CNN
F 2 "" H 9600 5250 50  0001 C CNN
F 3 "" H 9600 5250 50  0001 C CNN
	1    9600 5250
	1    0    0    -1  
$EndComp
Text Label 8600 5250 1    50   ~ 0
5V_SB
Wire Wire Line
	9400 5450 9600 5450
Wire Wire Line
	9600 5450 9600 5250
Wire Wire Line
	8800 5450 8600 5450
Wire Wire Line
	8600 5450 8600 5250
$Comp
L power:GND #PWR0123
U 1 1 6194EC9F
P 9100 5850
F 0 "#PWR0123" H 9100 5600 50  0001 C CNN
F 1 "GND" H 9105 5677 50  0000 C CNN
F 2 "" H 9100 5850 50  0001 C CNN
F 3 "" H 9100 5850 50  0001 C CNN
	1    9100 5850
	1    0    0    -1  
$EndComp
Wire Wire Line
	9100 5850 9100 5750
$Comp
L power:GND #PWR0126
U 1 1 61967E5F
P 8450 1300
F 0 "#PWR0126" H 8450 1050 50  0001 C CNN
F 1 "GND" H 8455 1127 50  0000 C CNN
F 2 "" H 8450 1300 50  0001 C CNN
F 3 "" H 8450 1300 50  0001 C CNN
	1    8450 1300
	1    0    0    -1  
$EndComp
$Comp
L 4xxx:4075 U1
U 1 1 6196D7E5
P 4900 5850
F 0 "U1" H 4900 6175 50  0000 C CNN
F 1 "4075" H 4900 6084 50  0000 C CNN
F 2 "Package_SO:SOIC-14_3.9x8.7mm_P1.27mm" H 4900 5850 50  0001 C CNN
F 3 "http://www.intersil.com/content/dam/Intersil/documents/cd40/cd4071bms-72bms-75bms.pdf" H 4900 5850 50  0001 C CNN
	1    4900 5850
	1    0    0    -1  
$EndComp
$Comp
L 4xxx:4075 U1
U 2 1 6196FB91
P 4900 6550
F 0 "U1" H 4900 6875 50  0000 C CNN
F 1 "4075" H 4900 6784 50  0000 C CNN
F 2 "Package_SO:SOIC-14_3.9x8.7mm_P1.27mm" H 4900 6550 50  0001 C CNN
F 3 "http://www.intersil.com/content/dam/Intersil/documents/cd40/cd4071bms-72bms-75bms.pdf" H 4900 6550 50  0001 C CNN
	2    4900 6550
	1    0    0    -1  
$EndComp
$Comp
L 4xxx:4075 U1
U 3 1 619722FA
P 4850 7300
F 0 "U1" H 4850 7625 50  0000 C CNN
F 1 "4075" H 4850 7534 50  0000 C CNN
F 2 "Package_SO:SOIC-14_3.9x8.7mm_P1.27mm" H 4850 7300 50  0001 C CNN
F 3 "http://www.intersil.com/content/dam/Intersil/documents/cd40/cd4071bms-72bms-75bms.pdf" H 4850 7300 50  0001 C CNN
	3    4850 7300
	1    0    0    -1  
$EndComp
$Comp
L 4xxx:4075 U1
U 4 1 6197360A
P 5850 6550
F 0 "U1" H 6080 6596 50  0000 L CNN
F 1 "4075" H 6080 6505 50  0000 L CNN
F 2 "Package_SO:SOIC-14_3.9x8.7mm_P1.27mm" H 5850 6550 50  0001 C CNN
F 3 "http://www.intersil.com/content/dam/Intersil/documents/cd40/cd4071bms-72bms-75bms.pdf" H 5850 6550 50  0001 C CNN
	4    5850 6550
	1    0    0    -1  
$EndComp
$Comp
L power:VCC #PWR0129
U 1 1 619D8ACA
P 5850 6050
F 0 "#PWR0129" H 5850 5900 50  0001 C CNN
F 1 "VCC" H 5865 6223 50  0000 C CNN
F 2 "" H 5850 6050 50  0001 C CNN
F 3 "" H 5850 6050 50  0001 C CNN
	1    5850 6050
	1    0    0    -1  
$EndComp
Wire Wire Line
	5200 6550 5300 6550
Wire Wire Line
	5300 6150 4500 6150
Wire Wire Line
	4500 6150 4500 5950
Wire Wire Line
	4500 5950 4600 5950
Wire Wire Line
	5300 6150 5300 6550
NoConn ~ 4550 7200
NoConn ~ 4550 7300
NoConn ~ 4550 7400
NoConn ~ 5150 7300
$Comp
L power:GND #PWR0132
U 1 1 61A37681
P 4450 1900
F 0 "#PWR0132" H 4450 1650 50  0001 C CNN
F 1 "GND" H 4455 1727 50  0000 C CNN
F 2 "" H 4450 1900 50  0001 C CNN
F 3 "" H 4450 1900 50  0001 C CNN
	1    4450 1900
	1    0    0    -1  
$EndComp
Wire Wire Line
	4550 1800 4450 1800
Wire Wire Line
	4450 1800 4450 1900
$Comp
L Connector_Generic:Conn_01x01 J11
U 1 1 61A4146F
P 10850 950
F 0 "J11" H 10930 992 50  0000 L CNN
F 1 "Conn_01x01" H 10930 901 50  0000 L CNN
F 2 "MountingHole:MountingHole_3.2mm_M3" H 10850 950 50  0001 C CNN
F 3 "~" H 10850 950 50  0001 C CNN
	1    10850 950 
	0    1    1    0   
$EndComp
$Comp
L Connector_Generic:Conn_01x01 J20
U 1 1 61AA6FB4
P 10750 950
F 0 "J20" H 10830 992 50  0000 L CNN
F 1 "Conn_01x01" H 10830 901 50  0000 L CNN
F 2 "MountingHole:MountingHole_3.2mm_M3" H 10750 950 50  0001 C CNN
F 3 "~" H 10750 950 50  0001 C CNN
	1    10750 950 
	0    1    1    0   
$EndComp
$Comp
L Connector_Generic:Conn_01x01 J19
U 1 1 61AABBD2
P 10650 950
F 0 "J19" H 10730 992 50  0000 L CNN
F 1 "Conn_01x01" H 10730 901 50  0000 L CNN
F 2 "MountingHole:MountingHole_3.2mm_M3" H 10650 950 50  0001 C CNN
F 3 "~" H 10650 950 50  0001 C CNN
	1    10650 950 
	0    1    1    0   
$EndComp
$Comp
L Connector_Generic:Conn_01x01 J18
U 1 1 61AABBE8
P 10550 950
F 0 "J18" H 10630 992 50  0000 L CNN
F 1 "Conn_01x01" H 10630 901 50  0000 L CNN
F 2 "MountingHole:MountingHole_3.2mm_M3" H 10550 950 50  0001 C CNN
F 3 "~" H 10550 950 50  0001 C CNN
	1    10550 950 
	0    1    1    0   
$EndComp
Text Label 5450 4150 0    50   ~ 0
RPiN_Signal
Wire Wire Line
	5050 4150 5450 4150
$Comp
L Connector_Generic:Conn_01x03 J12
U 1 1 619843DD
P 4750 1100
F 0 "J12" H 4830 1142 50  0000 L CNN
F 1 "Conn_01x03" H 4830 1051 50  0000 L CNN
F 2 "Connector_PinSocket_2.54mm:PinSocket_1x03_P2.54mm_Horizontal" H 4750 1100 50  0001 C CNN
F 3 "~" H 4750 1100 50  0001 C CNN
	1    4750 1100
	1    0    0    1   
$EndComp
$Comp
L power:VCC #PWR0133
U 1 1 61BD73D7
P 4450 900
F 0 "#PWR0133" H 4450 750 50  0001 C CNN
F 1 "VCC" H 4465 1073 50  0000 C CNN
F 2 "" H 4450 900 50  0001 C CNN
F 3 "" H 4450 900 50  0001 C CNN
	1    4450 900 
	1    0    0    -1  
$EndComp
$Comp
L power:VCC #PWR0134
U 1 1 61BDD2C4
P 6250 900
F 0 "#PWR0134" H 6250 750 50  0001 C CNN
F 1 "VCC" H 6265 1073 50  0000 C CNN
F 2 "" H 6250 900 50  0001 C CNN
F 3 "" H 6250 900 50  0001 C CNN
	1    6250 900 
	-1   0    0    -1  
$EndComp
Wire Wire Line
	8900 1850 8800 1850
Wire Wire Line
	8900 1850 8900 1950
$Comp
L power:GND #PWR0135
U 1 1 61C30AD3
P 8900 1950
F 0 "#PWR0135" H 8900 1700 50  0001 C CNN
F 1 "GND" H 8905 1777 50  0000 C CNN
F 2 "" H 8900 1950 50  0001 C CNN
F 3 "" H 8900 1950 50  0001 C CNN
	1    8900 1950
	1    0    0    -1  
$EndComp
Text Label 8400 1850 2    50   ~ 0
PS_ON
Wire Wire Line
	8500 1850 8400 1850
$Comp
L Jumper:SolderJumper_2_Open JP1
U 1 1 61C3AF36
P 8650 1850
F 0 "JP1" H 8650 2055 50  0000 C CNN
F 1 "SolderJumper_2_Open" H 8650 1964 50  0000 C CNN
F 2 "Jumper:SolderJumper-2_P1.3mm_Open_RoundedPad1.0x1.5mm" H 8650 1850 50  0001 C CNN
F 3 "~" H 8650 1850 50  0001 C CNN
	1    8650 1850
	1    0    0    -1  
$EndComp
Wire Notes Line
	3850 7800 3850 5200
Wire Notes Line
	3850 5200 6800 5200
Wire Notes Line
	6800 5200 6800 7800
Text Notes 6150 5450 0    50   ~ 0
   Logic gate\n"Any activity"\n
Wire Notes Line
	6800 5550 6100 5550
Wire Notes Line
	6100 5550 6100 5200
Wire Notes Line
	3850 500  3850 2350
Wire Notes Line
	3850 2350 6800 2350
Wire Notes Line
	6800 2350 6800 500 
Text Notes 5100 2250 0    50   ~ 0
Board to Board\n  Connectors
Wire Notes Line
	5000 2350 5000 2000
Wire Notes Line
	5000 2000 5750 2000
Wire Notes Line
	5750 2000 5750 2350
$Comp
L power:VCC #PWR0124
U 1 1 61953762
P 9100 3250
F 0 "#PWR0124" H 9100 3100 50  0001 C CNN
F 1 "VCC" H 9115 3423 50  0000 C CNN
F 2 "" H 9100 3250 50  0001 C CNN
F 3 "" H 9100 3250 50  0001 C CNN
	1    9100 3250
	1    0    0    -1  
$EndComp
NoConn ~ 9800 4150
Wire Wire Line
	9700 4150 9800 4150
Wire Wire Line
	9700 3650 9800 3650
Wire Wire Line
	9700 3750 9800 3750
Wire Wire Line
	9700 3850 9800 3850
Wire Wire Line
	9700 3950 9800 3950
Wire Wire Line
	9700 4050 9800 4050
Text Label 9800 3750 0    50   ~ 0
RPi_Signal
Text Label 9800 3650 0    50   ~ 0
SW_ON-OFF
Text Label 9800 4050 0    50   ~ 0
PS_ON
Text Label 9800 3850 0    50   ~ 0
RPi_Act
Text Label 9800 3950 0    50   ~ 0
PWR_OK
Wire Wire Line
	9100 4650 9100 4550
Wire Wire Line
	9100 3350 9100 3250
$Comp
L power:GND #PWR0121
U 1 1 6181DBB5
P 9100 4650
F 0 "#PWR0121" H 9100 4400 50  0001 C CNN
F 1 "GND" H 9105 4477 50  0000 C CNN
F 2 "" H 9100 4650 50  0001 C CNN
F 3 "" H 9100 4650 50  0001 C CNN
	1    9100 4650
	1    0    0    -1  
$EndComp
$Comp
L MCU_Microchip_ATtiny:ATtiny13-20PU U2
U 1 1 61815ECF
P 9100 3950
F 0 "U2" H 8571 3996 50  0000 R CNN
F 1 "ATtiny13-20PU" H 8571 3905 50  0000 R CNN
F 2 "Package_DIP:DIP-8_W7.62mm" H 9100 3950 50  0001 C CIN
F 3 "http://ww1.microchip.com/downloads/en/DeviceDoc/doc2535.pdf" H 9100 3950 50  0001 C CNN
	1    9100 3950
	1    0    0    -1  
$EndComp
Wire Notes Line
	3850 4500 6800 4500
Wire Notes Line
	6800 4500 6800 2800
Wire Notes Line
	6800 2800 3850 2800
Wire Notes Line
	3850 2800 3850 4500
Text Notes 5050 3000 0    50   ~ 0
Shutdown signal\n
Wire Notes Line
	5000 2800 5000 3100
Wire Notes Line
	5000 3100 5750 3100
Wire Notes Line
	5750 3100 5750 2800
Wire Notes Line
	7700 6300 7700 2800
Wire Notes Line
	7700 2800 10550 2800
Wire Notes Line
	10550 2800 10550 6300
Text Notes 7850 6200 0    50   ~ 0
ATTiny 13 20PU\n3.3V Linear Reg\n
Wire Notes Line
	8550 6300 8550 5950
Wire Notes Line
	8550 5950 7700 5950
Wire Notes Line
	7700 6300 10550 6300
Wire Notes Line
	7700 2350 9950 2350
Wire Notes Line
	9950 500  9950 2350
Wire Notes Line
	7700 500  7700 2350
$Comp
L Regulator_Linear:NCP5501DT33RKG U3
U 1 1 61C156DC
P 9100 5450
F 0 "U3" H 9100 5692 50  0000 C CNN
F 1 "NCP5501DT33RKG" H 9100 5601 50  0000 C CNN
F 2 "Package_TO_SOT_SMD:TO-252-2_TabPin2" H 9100 5675 50  0001 C CIN
F 3 "" H 9100 5450 50  0001 C CNN
	1    9100 5450
	1    0    0    -1  
$EndComp
Wire Wire Line
	5050 4000 5450 4000
Wire Wire Line
	5050 3850 5450 3850
Wire Wire Line
	5050 3700 5450 3700
Wire Wire Line
	5050 3550 5450 3550
$EndSCHEMATC
